# MagicaVoxel @ Ephtracy

# material
mtllib fire.mtl
usemtl palette

# normals
vn -1 0 0
vn 1 0 0
vn 0 0 1
vn 0 0 -1
vn 0 -1 0
vn 0 1 0

# texcoords
vt 0.146484 0.5

# verts
v -2 0 2
v -2 0 -2
v -2 4 2
v -2 4 1
v -2 4 -1
v -2 4 -2
v -2 5 1
v -2 5 -1
v -2 8 -0
v -2 8 -1
v -2 9 -0
v -2 9 -1
v -1 4 -1
v -1 4 -2
v -1 5 1
v -1 5 -1
v -1 6 1
v -1 6 -2
v -1 7 2
v -1 7 1
v -1 8 2
v -1 8 1
v 0 4 2
v 0 4 1
v 0 6 2
v 0 6 1
v 0 6 -0
v 0 6 -1
v 0 7 -0
v 0 7 -1
v 1 8 1
v 1 8 -0
v 1 9 1
v 1 9 -0
v -1 8 -0
v -1 8 -1
v -1 9 -0
v -1 9 -1
v 0 5 -1
v 0 5 -2
v 0 6 -1
v 0 6 -2
v 0 7 2
v 0 7 1
v 0 8 2
v 0 8 1
v 1 3 2
v 1 3 1
v 1 5 1
v 1 5 -0
v 1 6 2
v 1 6 -0
v 1 6 -1
v 1 7 -0
v 1 7 -1
v 2 0 2
v 2 0 -2
v 2 3 2
v 2 3 1
v 2 5 1
v 2 5 -0
v 2 5 -1
v 2 5 -2
v 2 6 -0
v 2 6 -1
v 2 8 1
v 2 8 -0
v 2 9 1
v 2 9 -0
v -2 0 2
v -2 4 2
v -1 7 2
v -1 8 2
v 0 4 2
v 0 6 2
v 0 7 2
v 0 8 2
v 1 3 2
v 1 6 2
v 2 0 2
v 2 3 2
v -2 4 1
v -2 5 1
v -1 5 1
v -1 6 1
v 0 4 1
v 0 6 1
v 1 3 1
v 1 5 1
v 1 8 1
v 1 9 1
v 2 3 1
v 2 5 1
v 2 8 1
v 2 9 1
v -2 8 -0
v -2 9 -0
v -1 8 -0
v -1 9 -0
v 0 6 -0
v 0 7 -0
v 1 5 -0
v 1 6 -0
v 1 7 -0
v 2 5 -0
v 2 6 -0
v -1 7 1
v -1 8 1
v 0 7 1
v 0 8 1
v 1 8 -0
v 1 9 -0
v 2 8 -0
v 2 9 -0
v -2 4 -1
v -2 5 -1
v -2 8 -1
v -2 9 -1
v -1 4 -1
v -1 5 -1
v -1 8 -1
v -1 9 -1
v 0 5 -1
v 0 6 -1
v 0 7 -1
v 1 6 -1
v 1 7 -1
v 2 5 -1
v 2 6 -1
v -2 0 -2
v -2 4 -2
v -1 4 -2
v -1 6 -2
v 0 5 -2
v 0 6 -2
v 2 0 -2
v 2 5 -2
v -2 0 2
v 2 0 2
v -2 0 -2
v 2 0 -2
v -1 7 2
v 0 7 2
v -1 7 1
v 0 7 1
v 1 8 1
v 2 8 1
v -2 8 -0
v -1 8 -0
v 1 8 -0
v 2 8 -0
v -2 8 -1
v -1 8 -1
v 1 3 2
v 2 3 2
v 1 3 1
v 2 3 1
v -2 4 2
v 0 4 2
v -2 4 1
v 0 4 1
v -2 4 -1
v -1 4 -1
v -2 4 -2
v -1 4 -2
v -2 5 1
v -1 5 1
v 1 5 1
v 2 5 1
v 1 5 -0
v 2 5 -0
v -2 5 -1
v -1 5 -1
v 0 5 -1
v 2 5 -1
v 0 5 -2
v 2 5 -2
v 0 6 2
v 1 6 2
v -1 6 1
v 0 6 1
v 0 6 -0
v 1 6 -0
v 2 6 -0
v 0 6 -1
v 1 6 -1
v 2 6 -1
v -1 6 -2
v 0 6 -2
v 0 7 -0
v 1 7 -0
v 0 7 -1
v 1 7 -1
v -1 8 2
v 0 8 2
v -1 8 1
v 0 8 1
v 1 9 1
v 2 9 1
v -2 9 -0
v -1 9 -0
v 1 9 -0
v 2 9 -0
v -2 9 -1
v -1 9 -1

# faces
f 3/1/1 2/1/1 1/1/1
f 4/1/1 2/1/1 3/1/1
f 5/1/1 2/1/1 4/1/1
f 6/1/1 2/1/1 5/1/1
f 7/1/1 5/1/1 4/1/1
f 8/1/1 5/1/1 7/1/1
f 11/1/1 10/1/1 9/1/1
f 12/1/1 10/1/1 11/1/1
f 16/1/1 14/1/1 13/1/1
f 17/1/1 16/1/1 15/1/1
f 18/1/1 14/1/1 16/1/1
f 18/1/1 16/1/1 17/1/1
f 21/1/1 20/1/1 19/1/1
f 22/1/1 20/1/1 21/1/1
f 25/1/1 24/1/1 23/1/1
f 26/1/1 24/1/1 25/1/1
f 29/1/1 28/1/1 27/1/1
f 30/1/1 28/1/1 29/1/1
f 33/1/1 32/1/1 31/1/1
f 34/1/1 32/1/1 33/1/1
f 35/1/2 36/1/2 37/1/2
f 37/1/2 36/1/2 38/1/2
f 39/1/2 40/1/2 41/1/2
f 41/1/2 40/1/2 42/1/2
f 43/1/2 44/1/2 45/1/2
f 45/1/2 44/1/2 46/1/2
f 47/1/2 48/1/2 49/1/2
f 47/1/2 49/1/2 51/1/2
f 49/1/2 50/1/2 51/1/2
f 51/1/2 50/1/2 52/1/2
f 52/1/2 53/1/2 54/1/2
f 54/1/2 53/1/2 55/1/2
f 56/1/2 57/1/2 58/1/2
f 58/1/2 57/1/2 59/1/2
f 59/1/2 57/1/2 60/1/2
f 60/1/2 57/1/2 61/1/2
f 61/1/2 57/1/2 62/1/2
f 62/1/2 57/1/2 63/1/2
f 61/1/2 62/1/2 64/1/2
f 64/1/2 62/1/2 65/1/2
f 66/1/2 67/1/2 68/1/2
f 68/1/2 67/1/2 69/1/2
f 74/1/3 71/1/3 70/1/3
f 76/1/3 73/1/3 72/1/3
f 77/1/3 73/1/3 76/1/3
f 78/1/3 75/1/3 74/1/3
f 78/1/3 74/1/3 70/1/3
f 79/1/3 75/1/3 78/1/3
f 80/1/3 78/1/3 70/1/3
f 81/1/3 78/1/3 80/1/3
f 84/1/3 83/1/3 82/1/3
f 86/1/3 84/1/3 82/1/3
f 86/1/3 85/1/3 84/1/3
f 87/1/3 85/1/3 86/1/3
f 92/1/3 89/1/3 88/1/3
f 93/1/3 89/1/3 92/1/3
f 94/1/3 91/1/3 90/1/3
f 95/1/3 91/1/3 94/1/3
f 98/1/3 97/1/3 96/1/3
f 99/1/3 97/1/3 98/1/3
f 103/1/3 101/1/3 100/1/3
f 104/1/3 101/1/3 103/1/3
f 105/1/3 103/1/3 102/1/3
f 106/1/3 103/1/3 105/1/3
f 107/1/4 108/1/4 109/1/4
f 109/1/4 108/1/4 110/1/4
f 111/1/4 112/1/4 113/1/4
f 113/1/4 112/1/4 114/1/4
f 115/1/4 116/1/4 119/1/4
f 119/1/4 116/1/4 120/1/4
f 117/1/4 118/1/4 121/1/4
f 121/1/4 118/1/4 122/1/4
f 123/1/4 124/1/4 126/1/4
f 124/1/4 125/1/4 126/1/4
f 126/1/4 125/1/4 127/1/4
f 123/1/4 126/1/4 128/1/4
f 128/1/4 126/1/4 129/1/4
f 130/1/4 131/1/4 132/1/4
f 132/1/4 133/1/4 134/1/4
f 134/1/4 133/1/4 135/1/4
f 130/1/4 132/1/4 136/1/4
f 132/1/4 134/1/4 136/1/4
f 136/1/4 134/1/4 137/1/4
f 140/1/5 139/1/5 138/1/5
f 141/1/5 139/1/5 140/1/5
f 144/1/5 143/1/5 142/1/5
f 145/1/5 143/1/5 144/1/5
f 150/1/5 147/1/5 146/1/5
f 151/1/5 147/1/5 150/1/5
f 152/1/5 149/1/5 148/1/5
f 153/1/5 149/1/5 152/1/5
f 154/1/6 155/1/6 156/1/6
f 156/1/6 155/1/6 157/1/6
f 158/1/6 159/1/6 160/1/6
f 160/1/6 159/1/6 161/1/6
f 162/1/6 163/1/6 164/1/6
f 164/1/6 163/1/6 165/1/6
f 168/1/6 169/1/6 170/1/6
f 170/1/6 169/1/6 171/1/6
f 166/1/6 167/1/6 172/1/6
f 172/1/6 167/1/6 173/1/6
f 174/1/6 175/1/6 176/1/6
f 176/1/6 175/1/6 177/1/6
f 178/1/6 179/1/6 181/1/6
f 181/1/6 179/1/6 182/1/6
f 180/1/6 181/1/6 182/1/6
f 182/1/6 179/1/6 183/1/6
f 180/1/6 182/1/6 185/1/6
f 183/1/6 184/1/6 186/1/6
f 186/1/6 184/1/6 187/1/6
f 180/1/6 185/1/6 188/1/6
f 188/1/6 185/1/6 189/1/6
f 190/1/6 191/1/6 192/1/6
f 192/1/6 191/1/6 193/1/6
f 194/1/6 195/1/6 196/1/6
f 196/1/6 195/1/6 197/1/6
f 198/1/6 199/1/6 202/1/6
f 202/1/6 199/1/6 203/1/6
f 200/1/6 201/1/6 204/1/6
f 204/1/6 201/1/6 205/1/6
